…
My initial exploratory code:

``` r
instacart %>% 
  group_by(user_id) %>% 
  summarize(n_obs = n())
```

    ## `summarise()` ungrouping output (override with `.groups` argument)

    ## # A tibble: 131,209 x 2
    ##    user_id n_obs
    ##      <int> <int>
    ##  1       1    11
    ##  2       2    31
    ##  3       5     9
    ##  4       7     9
    ##  5       8    18
    ##  6       9    22
    ##  7      10     4
    ##  8      13     5
    ##  9      14    11
    ## 10      17     6
    ## # … with 131,199 more rows

``` r
instacart %>% 
  group_by(product_id) %>% 
  summarize(n_obs = n())
```

    ## `summarise()` ungrouping output (override with `.groups` argument)

    ## # A tibble: 39,123 x 2
    ##    product_id n_obs
    ##         <int> <int>
    ##  1          1    76
    ##  2          2     4
    ##  3          3     6
    ##  4          4    22
    ##  5          5     1
    ##  6          7     1
    ##  7          8    13
    ##  8          9     5
    ##  9         10   119
    ## 10         11     2
    ## # … with 39,113 more rows

``` r
instacart %>% 
  group_by(product_name) %>% 
  summarize(n_obs = n())
```

    ## `summarise()` ungrouping output (override with `.groups` argument)

    ## # A tibble: 39,123 x 2
    ##    product_name                                                            n_obs
    ##    <chr>                                                                   <int>
    ##  1 "\\\"Constant Comment\\\" Black Tea"                                        3
    ##  2 "\\\"Constant Comment\\\" Decaffeinated Black Tea Blend"                    3
    ##  3 "\\\"Darn Good\\\" Chili Mix"                                               5
    ##  4 "\\\"Im Pei-nut Butter\\\" Double Chocolate Cookie & Peanut Butter Ice…     5
    ##  5 "\\\"Mies Vanilla Rohe\\\" Ice Cream Bars"                                  6
    ##  6 "\\\"Mokaccino\\\" Milk + Blue Bottle Coffee Chocolate"                    10
    ##  7 "& Go! Hazelnut Spread + Pretzel Sticks"                                   10
    ##  8 "#2 Coffee Filters"                                                        22
    ##  9 "#2 Cone White Coffee Filters"                                              1
    ## 10 "#2 Mechanical Pencils"                                                     1
    ## # … with 39,113 more rows

``` r
instacart %>% 
  group_by(aisle) %>% 
  summarize(n_obs = n())
```

    ## `summarise()` ungrouping output (override with `.groups` argument)

    ## # A tibble: 134 x 2
    ##    aisle                  n_obs
    ##    <chr>                  <int>
    ##  1 air fresheners candles  1067
    ##  2 asian foods             7007
    ##  3 baby accessories         306
    ##  4 baby bath body care      328
    ##  5 baby food formula      13198
    ##  6 bakery desserts         1501
    ##  7 baking ingredients     13088
    ##  8 baking supplies decor   1094
    ##  9 beauty                   287
    ## 10 beers coolers           1839
    ## # … with 124 more rows

``` r
instacart %>% 
  group_by(aisle, order_id) %>% 
  summarize(n_obs = n())
```

    ## `summarise()` regrouping output by 'aisle' (override with `.groups` argument)

    ## # A tibble: 990,769 x 3
    ## # Groups:   aisle [134]
    ##    aisle                  order_id n_obs
    ##    <chr>                     <int> <int>
    ##  1 air fresheners candles    13749     1
    ##  2 air fresheners candles    14585     2
    ##  3 air fresheners candles    15177     2
    ##  4 air fresheners candles    27660     1
    ##  5 air fresheners candles    28046     1
    ##  6 air fresheners candles    33894     1
    ##  7 air fresheners candles    34969     1
    ##  8 air fresheners candles    37509     1
    ##  9 air fresheners candles    43286     1
    ## 10 air fresheners candles    43699     2
    ## # … with 990,759 more rows

``` r
instacart %>% 
  group_by(department) %>% 
  summarize(n_obs = n())
```

    ## `summarise()` ungrouping output (override with `.groups` argument)

    ## # A tibble: 21 x 2
    ##    department       n_obs
    ##    <chr>            <int>
    ##  1 alcohol           5598
    ##  2 babies           14941
    ##  3 bakery           48394
    ##  4 beverages       114046
    ##  5 breakfast        29500
    ##  6 bulk              1359
    ##  7 canned goods     46799
    ##  8 dairy eggs      217051
    ##  9 deli             44291
    ## 10 dry goods pasta  38713
    ## # … with 11 more rows

``` r
instacart %>% 
  count(department, name = "n_obs")
```

    ## # A tibble: 21 x 2
    ##    department       n_obs
    ##    <chr>            <int>
    ##  1 alcohol           5598
    ##  2 babies           14941
    ##  3 bakery           48394
    ##  4 beverages       114046
    ##  5 breakfast        29500
    ##  6 bulk              1359
    ##  7 canned goods     46799
    ##  8 dairy eggs      217051
    ##  9 deli             44291
    ## 10 dry goods pasta  38713
    ## # … with 11 more rows

``` r
instacart %>% 
  count(order_number, name = "n_obs")
```

    ## # A tibble: 97 x 2
    ##    order_number  n_obs
    ##           <int>  <int>
    ##  1            4 149882
    ##  2            5 123548
    ##  3            6 105328
    ##  4            7  90949
    ##  5            8  75645
    ##  6            9  68366
    ##  7           10  60216
    ##  8           11  51530
    ##  9           12  47819
    ## 10           13  42072
    ## # … with 87 more rows

``` r
instacart %>% 
  group_by(aisle, order_number) %>% 
  relocate(aisle, order_number) %>% 
  mutate(order_number_rank = min_rank(desc(order_number))) %>% 
  relocate(aisle, order_number_rank, order_number) %>% 
  summarize(n_obs = n())
```

    ## `summarise()` regrouping output by 'aisle' (override with `.groups` argument)

    ## # A tibble: 11,279 x 3
    ## # Groups:   aisle [134]
    ##    aisle                  order_number n_obs
    ##    <chr>                         <int> <int>
    ##  1 air fresheners candles            4   126
    ##  2 air fresheners candles            5    93
    ##  3 air fresheners candles            6    97
    ##  4 air fresheners candles            7    72
    ##  5 air fresheners candles            8    46
    ##  6 air fresheners candles            9    53
    ##  7 air fresheners candles           10    65
    ##  8 air fresheners candles           11    58
    ##  9 air fresheners candles           12    36
    ## 10 air fresheners candles           13    34
    ## # … with 11,269 more rows
…
How many aisles, and which are most items from? (this is a question
about counting) Answer: There are 134 aisles and the top three aisles
are (1) fresh vegetables, (2) fresh fruits, and (3) packaged vegetables
fruits

``` r
instacart %>% 
  count(aisle) %>% 
  arrange(desc(n))
```

    ## # A tibble: 134 x 2
    ##    aisle                              n
    ##    <chr>                          <int>
    ##  1 fresh vegetables              150609
    ##  2 fresh fruits                  150473
    ##  3 packaged vegetables fruits     78493
    ##  4 yogurt                         55240
    ##  5 packaged cheese                41699
    ##  6 water seltzer sparkling water  36617
    ##  7 milk                           32644
    ##  8 chips pretzels                 31269
    ##  9 soy lactosefree                26240
    ## 10 bread                          23635
    ## # … with 124 more rows

\*desc(n) from most to least

``` r
instacart %>% 
  count(aisle) %>% 
  arrange(n)
```

    ## # A tibble: 134 x 2
    ##    aisle                          n
    ##    <chr>                      <int>
    ##  1 beauty                       287
    ##  2 frozen juice                 294
    ##  3 baby accessories             306
    ##  4 baby bath body care          328
    ##  5 kitchen supplies             448
    ##  6 specialty wines champagnes   461
    ##  7 ice cream toppings           504
    ##  8 shave needs                  532
    ##  9 skin care                    534
    ## 10 first aid                    539
    ## # … with 124 more rows
…
